D:\SL TESTING\Projects\kid-o-store\src\test\java\validations\login\constants\LoginConstants.java
D:\SL TESTING\Projects\kid-o-store\src\test\java\validations\search\SearchModalValidation.java
D:\SL TESTING\Projects\kid-o-store\src\test\java\validations\home\exclusiveProducts\constants\ExclusiveProductConstants.java
D:\SL TESTING\Projects\kid-o-store\src\test\java\validations\search\SearchResultValidation.java
D:\SL TESTING\Projects\kid-o-store\src\test\java\validations\search\constants\SearchModalConstants.java
D:\SL TESTING\Projects\kid-o-store\src\test\java\stepdefinitions\search\SearchProductStepDefinition.java
D:\SL TESTING\Projects\kid-o-store\src\test\java\validations\navigation\constants\NavigationConstants.java
D:\SL TESTING\Projects\kid-o-store\src\test\java\validations\search\constants\SearchResultConstants.java
D:\SL TESTING\Projects\kid-o-store\src\test\java\validations\search\SearchProductValidation.java
D:\SL TESTING\Projects\kid-o-store\src\test\java\tests\login\LoginTests.java
D:\SL TESTING\Projects\kid-o-store\src\test\java\stepdefinitions\BasicStepDefinition.java
D:\SL TESTING\Projects\kid-o-store\src\test\java\stepdefinitions\home\exclusiveProducts\ExclusiveProductsStepDefinition.java
D:\SL TESTING\Projects\kid-o-store\src\test\java\tests\cart\AddToCartTests.java
D:\SL TESTING\Projects\kid-o-store\src\test\java\validations\navigation\NavigationValidation.java
D:\SL TESTING\Projects\kid-o-store\src\test\java\validations\cart\CartValidation.java
D:\SL TESTING\Projects\kid-o-store\src\test\java\validations\cart\constants\CartConstants.java
D:\SL TESTING\Projects\kid-o-store\src\test\java\validations\home\exclusiveProducts\constants\ExclusiveProductsValidation.java
D:\SL TESTING\Projects\kid-o-store\src\test\java\testrunner\TestRunner.java
D:\SL TESTING\Projects\kid-o-store\src\test\java\stepdefinitions\hooks\ApplicationHooks.java
D:\SL TESTING\Projects\kid-o-store\src\test\java\stepdefinitions\login\LoginStepDefinitions.java
D:\SL TESTING\Projects\kid-o-store\src\test\java\validations\product\SingleProductValidation.java
D:\SL TESTING\Projects\kid-o-store\src\test\java\validations\loader\constants\LoaderConstants.java
D:\SL TESTING\Projects\kid-o-store\src\test\java\tests\home\exclusiveProducts\ExclusiveProductsTests.java
D:\SL TESTING\Projects\kid-o-store\src\test\java\validations\loader\LoaderValidation.java
D:\SL TESTING\Projects\kid-o-store\src\test\java\validations\product\contants\SingleProductConstants.java
D:\SL TESTING\Projects\kid-o-store\src\test\java\stepdefinitions\cart\AddToCartStepDefinitions.java
D:\SL TESTING\Projects\kid-o-store\src\test\java\tests\search\SearchProductTests.java
D:\SL TESTING\Projects\kid-o-store\src\test\java\validations\login\LoginValidation.java
